{
  "type": "service_account",
  "project_id": "javafx-firestore-5d30b",
  "private_key_id": "5da3f5393c90ec2680ce3400f2ae7a67295a103c",
  "private_key": "-----BEGIN PRIVATE KEY-----\nMIIEvAIBADANBgkqhkiG9w0BAQEFAASCBKYwggSiAgEAAoIBAQC61qSep6ViA+aQ\nIGLU45jyQaPhv/geMW+dmUf2o6vMTd/pKb2JnMliZstw068ve+b50lRjI9ZwZPso\nV0ijenSw7q3199mm2m+GbWQAG+52Q9KU731GVOwRlpyqoQeM/dglDdPEDn+toNgr\n1Qc5PcUzsfyvAyCGGWkEaqaflFPLY0PnXyzn4GcLn3OnwrJcIgXtBUN2V1TwJ6Bd\nTYU9OZxQQvwnnDlMFKq+p4QhdhBQsxMofZRbKTmVjXoEbMD82n04WHmPMf8iOU87\nGtSzBeOVYjR8H4YXKOmRK+zf9m5ACbuNfsgT5Cmaa4E6o3YizE/cC5Ppf/B5ujd6\naFN1QPXNAgMBAAECggEAKKHaXiiOVnELuMdaRvsSPYkZ51P01TgiEm+Nz20LxRwg\neFgcAKvove4mCyz2GckD08uyj3bxQTMszbqhsO/GJd5aVbYnjtpNS7pJd56bbvvT\n9ZDZuSxpxG9xNchcWISx92j451fR24QxzuJ+tiuhUdtA3Ry8e31WMeAxyV2cFYxr\nOiielvpm5uPWU+Rr7ZCbUCiiXcQ77Hsib85c5fJ6HxI2f4V+yBt5IzZnRTjZYfLv\nQdZIGa6OMPUuH6ICMPUnir+b9f0jvEQtNMoDcVv54aTjdNvlydkigL5SPjfz+eYt\nYF1SEMq63auDOJ0OuyemXm2l15VfpKQaMLwi/X0rkQKBgQDjnFLJq2f/14XVGmL7\n1MuSPpfxEbzWV/IOGF12HX6K1VOtdKoByALM8Xx7TWWVHpF2MQ4BoCPpu2OqC747\nMUtvfEGlUUvS/jhvj0QuEBFd+MWZV69KWoD4L6GQXMeZp5KCBNWp19EBOKcZ0TJO\nmlnsjx6K9F7WnqSyhCXLGASGSQKBgQDSJHOJnmXi/+0EMZgCJd4Z7j8BypasmYmS\nLjg+ZMvDM7XdTV0Q4NjAqgQlx82nEjCJIcMUGc1atbiiRWTfo/cB4bdir48wRgZK\nKH05YJ+zwNzaeuQX0Wc6tkvT506nutCY9sM+p1QDy6wDis9ZQ+p2OxSixNgeSHnL\nP86zxDwjZQKBgBR72w9/N4rU0JyPFV1olzGAJJhzajU4EPanxrF8kgjYjgFMQIiM\ngYQEL5nBK2UyLREf9Qy8Zr8AOEXzbJlTJGDSI+5G1LYWXunbUN18YLO+UbotI/9j\nCbxMPRQK5YO0iwDcgoYYgBzGBnPSWd6tEW6yqqMCvw49lMDkF6qhbLbRAoGACyBe\n9bRrVJ+UXxp5H/P9VIYm0+N0IuNmQ1UrKTKRD17XjEYiXVhqYZke6xkvLF9sLnaZ\nK6FKHDlu8ziVZLn7xB+9Y/5DqJysjJSkPLt++TeG+hJzrUcrHhK05R1kLsFXdiHq\nqJCXhDPugamB3QoZifUK3Ktrff78Y+SW/zGutXkCgYAKwlgsJbja/nTPRq4r6I3A\nLARKFEaDbyXlTPJ1H6kmbllnCBm3hjGu5WW3WYNRjqQqMUTEr3TWWr5DFE+3DNAP\nX8I5hNP5jWlHKaxeO+7YnBDyVP+IiXICeJRA2B17Gq94/MGinRww3AMtTXEbY7ga\nq3gc8bm57YDAewRJkbfulA==\n-----END PRIVATE KEY-----\n",
  "client_email": "firebase-adminsdk-lnj57@javafx-firestore-5d30b.iam.gserviceaccount.com",
  "client_id": "114766733372791116940",
  "auth_uri": "https://accounts.google.com/o/oauth2/auth",
  "token_uri": "https://oauth2.googleapis.com/token",
  "auth_provider_x509_cert_url": "https://www.googleapis.com/oauth2/v1/certs",
  "client_x509_cert_url": "https://www.googleapis.com/robot/v1/metadata/x509/firebase-adminsdk-lnj57%40javafx-firestore-5d30b.iam.gserviceaccount.com",
  "universe_domain": "googleapis.com"
}
